simulation/data_mem.vcd
$date
	Sun Jun  5 09:31:43 2022
$end
$version
	Icarus Verilog
$end
$timescale
	1s
$end
$scope module test $end
$var wire 32 ! read_data [31:0] $end
$var wire 8 " led [7:0] $end
$var wire 1 # clk_stall $end
$var reg 32 $ addr [31:0] $end
$var reg 1 % clk $end
$var reg 1 & memread $end
$var reg 1 ' memwrite $end
$var reg 4 ( sign_mask [3:0] $end
$var reg 32 ) write_data [31:0] $end
$scope module uut $end
$var wire 32 * addr [31:0] $end
$var wire 1 + bdec_sig0 $end
$var wire 1 , bdec_sig1 $end
$var wire 1 - bdec_sig2 $end
$var wire 1 . bdec_sig3 $end
$var wire 1 % clk $end
$var wire 1 & memread $end
$var wire 1 ' memwrite $end
$var wire 1 / select0 $end
$var wire 1 0 select1 $end
$var wire 4 1 sign_mask [3:0] $end
$var wire 32 2 write_data [31:0] $end
$var wire 1 3 write_select0 $end
$var wire 1 4 write_select1 $end
$var wire 32 5 write_out1 [31:0] $end
$var wire 1 6 select2 $end
$var wire 32 7 replacement_word [31:0] $end
$var wire 32 8 read_buf [31:0] $end
$var wire 32 9 out6 [31:0] $end
$var wire 32 : out5 [31:0] $end
$var wire 32 ; out3 [31:0] $end
$var wire 32 < out2 [31:0] $end
$var wire 32 = out1 [31:0] $end
$var wire 8 > led [7:0] $end
$var wire 16 ? halfword_r1 [15:0] $end
$var wire 16 @ halfword_r0 [15:0] $end
$var wire 8 A byte_r3 [7:0] $end
$var wire 8 B byte_r2 [7:0] $end
$var wire 8 C byte_r1 [7:0] $end
$var wire 8 D byte_r0 [7:0] $end
$var wire 8 E buf3 [7:0] $end
$var wire 8 F buf2 [7:0] $end
$var wire 8 G buf1 [7:0] $end
$var wire 8 H buf0 [7:0] $end
$var wire 2 I addr_buf_byte_offset [1:0] $end
$var wire 10 J addr_buf_block_addr [9:0] $end
$var reg 32 K addr_buf [31:0] $end
$var reg 1 # clk_stall $end
$var reg 32 L led_reg [31:0] $end
$var reg 1 M memread_buf $end
$var reg 1 N memwrite_buf $end
$var reg 32 O read_data [31:0] $end
$var reg 4 P sign_mask_buf [3:0] $end
$var reg 32 Q word_buf [31:0] $end
$var reg 32 R write_data_buffer [31:0] $end
$upscope $end
$upscope $end
$enddefinitions $end
#0
$dumpvars
b0 R
bx Q
b0 P
bx O
0N
0M
bx L
b0 K
b0 J
b0 I
bx H
bx G
bx F
bx E
b0 D
bx C
bx B
bx A
b0 @
bx ?
bx >
b0xxxxxxxx =
b0xxxxxxxx <
b0xxxxxxxxxxxxxxxx ;
b0xxxxxxxx :
b0xxxxxxxxxxxxxxxx 9
b0xxxxxxxx 8
bx00000000 7
06
bx00000000 5
04
03
b0 2
b0 1
00
0/
0.
0-
0,
1+
b0 *
b0 )
b0 (
0'
0&
1%
b0 $
0#
bx "
bx !
$end
#1
0%
#2
1%
#3
0%
#4
1%
#5
0%
#6
1%
#7
0%
#8
1%
#9
0%
#10
bx 9
10
bx00100001 5
03
b11111111000000111010101100100001 7
bx 8
b100001 D
b1010101100100001 @
14
16
b1 J
b111 P
b100 K
b11111111000000111010101100100001 R
1N
1%
b111 (
b111 1
1'
b11111111000000111010101100100001 )
b11111111000000111010101100100001 2
b100 $
b100 *
#11
0%
#12
0N
1%
0'
#13
b11 :
b100001 =
b1010101100100001 ;
b11 <
b11111111000000111010101100100001 5
b10101011 C
b11 B
b11111111 A
b1111111100000011 ?
b11111111000000111010101100100001 8
b100001 H
b10101011 G
b11 F
b11111111 E
b11111111000000111010101100100001 9
b11111111000000111010101100100001 Q
0%
#14
1%
#15
0%
#16
1%
#17
0%
#18
1%
#19
0%
#20
1M
1%
1&
#21
0%
#22
b11111111000000111010101100100001 !
b11111111000000111010101100100001 O
0M
1%
0&
#23
0%
#24
1%
#25
0%
#26
1%
#27
0%
#28
1%
#29
0%
#30
b1010101100100001 8
b100001 :
b1010101100100001 9
13
00
04
b10 J
b11111111000000111010101100100001 7
b11 P
b1000 K
b1010101100100001 R
1N
1%
b11 (
b11 1
1'
b1010101100100001 )
b1010101100100001 2
b1000 $
b1000 *
#31
b0xxxxxxxxxxxxxxxx 8
b0xxxxxxxx :
b0xxxxxxxxxxxxxxxx 9
bx1010101100100001 7
b0xxxxxxxx =
b0xxxxxxxxxxxxxxxx ;
b0xxxxxxxx <
bx1010101100100001 5
bx C
bx B
bx A
bx ?
bx H
bx G
bx F
bx E
bx Q
0%
#32
0N
1%
0'
#33
b1010101100100001 8
b100001 :
b1010101100100001 9
b100001 =
b1010101100100001 ;
b10101011 C
b100001 H
b10101011 G
bx1010101100100001 Q
0%
#34
1%
#35
0%
#36
1%
#37
0%
#38
1%
#39
0%
#40
b11111111111111111010101100100001 8
b11111111111111111010101100100001 9
bx <
b11111111111111111010101100100001 ;
b1011 P
1M
1%
b1011 (
b1011 1
1&
#41
0%
#42
b11111111111111111010101100100001 !
b11111111111111111010101100100001 O
0M
1%
0&
#43
0%
#44
1%
#45
0%
#46
1%
#47
0%
#48
1%
#49
0%
#50
b1010101100100001 8
b1010101100100001 9
b0xxxxxxxx <
b1010101100100001 ;
b11 P
1M
1%
b11 (
b11 1
1&
#51
0%
#52
b1010101100100001 !
b1010101100100001 O
0M
1%
0&
#53
0%
#54
1%
#55
0%
#56
1%
#57
0%
#58
1%
#59
0%
#60
b10101011 =
b0xxxxxxxxxxxxxxxx ;
b0xxxxxxxx :
bx1010101100100001 9
1/
10
b10101011 C
b1010011 A
0+
b1010011 ?
b1010011xxxxxxxx1010101100100001 7
0,
1.
b1010011xxxxxxxx1010101100100001 5
03
b0xxxxxxxx 8
b100001 D
b1010101100100001 @
06
b100 J
b11 I
b1 P
b10011 K
b1010011 R
1N
1%
b1 (
b1 1
1'
b1010011 )
b1010011 2
b10011 $
b10011 *
#61
b1010011xxxxxxxxxxxxxxxxxxxxxxxx 7
b1010011xxxxxxxxxxxxxxxxxxxxxxxx 5
b0xxxxxxxx =
bx D
bx C
bx @
bx H
bx G
bx 9
bx Q
0%
#62
0N
1%
0'
#63
b1010011 8
b1010011 :
b1010011 <
b1010011xxxxxxxx ;
b1010011 E
b1010011xxxxxxxxxxxxxxxxxxxxxxxx 9
b1010011xxxxxxxxxxxxxxxxxxxxxxxx Q
0%
#64
1%
#65
0%
#66
1%
#67
0%
#68
1%
#69
0%
#70
1M
1%
1&
#71
0%
#72
b1010011 !
b1010011 O
0M
1%
0&
#73
0%
#74
1%
#75
0%
#76
1%
#77
0%
#78
1%
#79
0%
#80
bx =
b1001 P
1M
1%
b1001 (
b1001 1
1&
#81
0%
#82
0M
1%
0&
#83
0%
#84
1%
#85
0%
#86
1%
#87
0%
#88
1%
#89
0%
#90
b0xxxxxxxx :
b1010011 D
b0xxxxxxxx <
b0xxxxxxxxxxxxxxxx ;
0/
b0xxxxxxxx =
1+
b1010011 @
b1010011xxxxxxxx ?
b1010011xxxxxxxxxxxxxxxx01010011 5
0.
03
b1010011 7
b1010011xxxxxxxxxxxxxxxxxxxxxxxx 8
14
16
b1 J
b0 I
b111 P
b100 K
1M
1%
b111 (
b111 1
1&
b100 $
b100 *
#91
b11 :
b100001 =
b1010101100100001 ;
b11 <
b11111111000000111010101101010011 5
b10101011 C
b11 B
b11111111 A
b1111111100000011 ?
b11111111000000111010101100100001 8
b100001 H
b10101011 G
b11 F
b11111111 E
b11111111000000111010101100100001 9
b11111111000000111010101100100001 Q
0%
#92
b11111111000000111010101100100001 !
b11111111000000111010101100100001 O
0M
1%
0&
#93
0%
#94
1%
#95
0%
#96
1%
#97
0%
#98
1%
#99
0%
#100
b11111111000000111010101110101011 5
b10101011 D
b1010101110101011 @
b10 J
b10101011101010111010101110101011 7
b1000 K
b10101011101010111010101110101011 R
1N
1%
1'
b10101011101010111010101110101011 )
b10101011101010111010101110101011 2
b1000 $
b1000 *
#101
b0xxxxxxxx :
b0xxxxxxxx <
bx1010101110101011 5
bx B
bx A
bx ?
bx1010101100100001 8
bx F
bx E
bx1010101100100001 9
bx1010101100100001 Q
0%
#102
b1010101100100001 8
b100001 :
b1010101100100001 9
13
00
bx1010101110101011 7
04
b1 J
b11 P
b100 K
0N
1M
1%
b11 (
b11 1
1&
0'
b100 $
b100 *
#103
b11111111000000111010101110101011 7
b11 <
b11111111000000111010101110101011 5
b11 B
b11111111 A
b1111111100000011 ?
b11 F
b11111111 E
b11111111000000111010101100100001 Q
0%
#104
b1010101100100001 !
b1010101100100001 O
0M
1%
0&
#105
0%
#106
1%
#107
0%
#108
1%
#109
0%
#110
1%
#111
0%
#112
b11111111000000111010101100100001 8
b11 :
b11111111000000111010101100100001 9
03
10
b10101011101010111010101110101011 7
b10101011 "
b10101011 >
14
b0 J
b10101011101010111010101110101011 L
b111 P
b10000000000000 K
1N
1%
b111 (
b111 1
1'
b10000000000000 $
b10000000000000 *
#113
b0xxxxxxxx :
b0xxxxxxxx =
b0xxxxxxxxxxxxxxxx ;
b0xxxxxxxx <
bx10101011 5
bx C
bx B
bx A
bx ?
bx 8
bx H
bx G
bx F
bx E
bx 9
bx Q
0%
#114
1%
#115
b10101011 :
b10101011 =
b1010101110101011 ;
b10101011 <
b10101011101010111010101110101011 5
b10101011 C
b10101011 B
b10101011 A
b1010101110101011 ?
b10101011101010111010101110101011 8
b10101011 H
b10101011 G
b10101011 F
b10101011 E
b10101011101010111010101110101011 9
b10101011101010111010101110101011 Q
0%
